[
    {
        "title": "Ferrari",
        "price": "250.000$",
        "id": "1",
        "color": "red",
        "url": "https://www.supercartribe.com/wp-content/uploads/2020/06/Monday-Drool-Ferrari-F8-Tributo-0009.jpg"  
    },
    {
        "title": "AUDI Q8",
        "price": "125.000$",
        "id": "2",
        "color": "black",
        "url": "https://cf-cdn-v5.audi.at/media/FullWidthImage_Component/59349-578970-578972/dh-1920-33d43f/b2fecdef/1675152661/rsq8-3.jpg"  
    },
    {
        "title": "BMW",
        "price": "150.000$",
        "id": "3",
        "color": "blue",
        "url": "https://images.unsplash.com/photo-1580273916550-e323be2ae537?ixlib=rb-4.0.3&ixid=MnwxMjA3fDB8MHxzZWFyY2h8MTJ8fGJtd3xlbnwwfHwwfHw%3D&w=1000&q=80"  
    },
    {
        "title": "Jaguar",
        "price": "225.000$",
        "id": "4",
        "color": "gray",
        "url": "https://encrypted-tbn0.gstatic.com/images?q=tbn:ANd9GcSK1-LWA0i4Q-laGk2neuCLR3gpzJDfTm_Mxg&usqp=CAU"
    },
   
    {
        "title": "Lamborghini",
        "price": "300.000$",
        "id": "5",
        "color": "green",
        "url": "https://apostrophe.ua/uploads/image/049796101abcd4b0ad1c0f3e31d673cf.jpg"  
    },
    {
        "title": "Range Rover",
        "price": "150.000$",
        "id": "6",
        "color": "black",
        "url": "https://encrypted-tbn0.gstatic.com/images?q=tbn:ANd9GcSY5JW0qqPX7QULurn7gFnDw7SM6ZHugyhwIA&usqp=CAU"  
    },
    {
        "title": "Porshe",
        "price": "400.000$",
        "id": "7",
        "color": "white",
        "url": "https://mfair.ua/user/cars/52894/52894-oficial-sportkar-porsche-911-30-pdk-carrera-4s-kiev-2019-1.jpg"  
    },
    {
        "title": "ГАЗ",
        "price": "650$",
        "id": "8",
        "color": "white",
        "url": "https://st1.prosto.im/cache/st1/4/8/6/1/48617/48617_200x.jpg"  
    },
    {
        "title": "Tesla",
        "price": "75.000$",
        "id": "9",
        "color": "blue",
        "url": "https://encrypted-tbn0.gstatic.com/images?q=tbn:ANd9GcR0BNTdQlvS81oaxm2eZ3Q0Kl8Q-O4ucR_QI4rr9Mrv&s"  
    },
    {
        "title": "Renault",
        "price": "35.000$",
        "id": "10",
        "color": "red",
        "url": "https://avto-russia.ru/autos/renault/photo/renault_arkana_small.jpg"  
    },
   
    {
        "title": "Mersedes",
        "price": "70.000$",
        "id": "11",
        "color": "black",
        "url": "https://cdn.riastatic.com/photosnew/auto/photo/mercedes-benz_eqe__467539562f.jpg"  
    },
    {
        "title": "Volvo",
        "price": "100.000$",
        "id": "12",
        "color": "silver",
        "url": "https://www.avtomir.ua/wp-content/uploads/2018/12/av_av_37_Volvo_XC60_.jpg"  
    }
]